-- Copyright (C) 1991-2016 Altera Corporation. All rights reserved.
-- Your use of Altera Corporation's design tools, logic functions 
-- and other software and tools, and its AMPP partner logic 
-- functions, and any output files from any of the foregoing 
-- (including device programming or simulation files), and any 
-- associated documentation or information are expressly subject 
-- to the terms and conditions of the Altera Program License 
-- Subscription Agreement, the Altera Quartus Prime License Agreement,
-- the Altera MegaCore Function License Agreement, or other 
-- applicable license agreement, including, without limitation, 
-- that your use is for the sole purpose of programming logic 
-- devices manufactured by Altera and sold by Altera or its 
-- authorized distributors.  Please refer to the applicable 
-- agreement for further details.

-- Quartus Prime generated Memory Initialization File (.mif)

WIDTH=6;
DEPTH=3200;

ADDRESS_RADIX=HEX;
DATA_RADIX=BIN;

CONTENT BEGIN
	[000..062]  :   111111;
	[063..065]  :   110000;
	066  :   111110;
	[067..089]  :   111111;
	08A  :   111110;
	08B  :   111000;
	[08C..08F]  :   110100;
	090  :   111010;
	[091..0AF]  :   111111;
	0B0  :   111110;
	0B1  :   111000;
	0B2  :   110000;
	[0B3..0B8]  :   110100;
	[0B9..0BE]  :   110000;
	0BF  :   110100;
	0C0  :   111000;
	[0C1..0C3]  :   110100;
	0C4  :   111010;
	[0C5..0D7]  :   111111;
	[0D8..0D9]  :   110000;
	[0DA..0DF]  :   110100;
	[0E0..0E4]  :   110000;
	[0E5..0ED]  :   110100;
	[0EE..0FE]  :   111111;
	0FF  :   111010;
	100  :   110000;
	[101..107]  :   110100;
	[108..10A]  :   110000;
	[10B..115]  :   110100;
	[116..125]  :   111111;
	126  :   111010;
	127  :   110000;
	128  :   110100;
	129  :   111000;
	[12A..12B]  :   111100;
	12C  :   111000;
	[12D..12E]  :   110100;
	12F  :   110000;
	130  :   110100;
	[131..132]  :   111000;
	[133..13D]  :   110100;
	13E  :   111110;
	[13F..14C]  :   111111;
	14D  :   111110;
	[14E..14F]  :   111000;
	[150..154]  :   111100;
	[155..157]  :   110100;
	158  :   111000;
	[159..15A]  :   110100;
	15B  :   111000;
	[15C..15D]  :   111100;
	15E  :   111000;
	[15F..164]  :   110100;
	165  :   111000;
	[166..173]  :   111111;
	174  :   111110;
	175  :   111000;
	176  :   110100;
	[177..17C]  :   111100;
	[17D..17E]  :   110100;
	17F  :   111000;
	[180..181]  :   110100;
	182  :   111000;
	[183..186]  :   111100;
	[187..18B]  :   110100;
	18C  :   111000;
	18D  :   111100;
	[18E..19A]  :   111111;
	19B  :   111110;
	19C  :   111000;
	19D  :   110100;
	[19E..1A4]  :   111100;
	[1A5..1A6]  :   111000;
	[1A7..1A8]  :   110100;
	1A9  :   111000;
	[1AA..1AE]  :   111100;
	[1AF..1B2]  :   110100;
	1B3  :   111000;
	[1B4..1B5]  :   111100;
	[1B6..1C2]  :   111111;
	1C3  :   111100;
	1C4  :   110000;
	[1C5..1CB]  :   111100;
	1CC  :   110100;
	1CD  :   110000;
	1CE  :   111000;
	1CF  :   110100;
	1D0  :   111000;
	[1D1..1D6]  :   111100;
	[1D7..1D9]  :   110100;
	1DA  :   111000;
	[1DB..1DD]  :   111100;
	[1DE..1E9]  :   111111;
	1EA  :   111110;
	1EB  :   111100;
	1EC  :   110100;
	[1ED..1F2]  :   111100;
	1F3  :   111000;
	[1F4..1F5]  :   110100;
	1F6  :   111000;
	[1F7..1FE]  :   111100;
	[1FF..200]  :   110100;
	201  :   111000;
	[202..205]  :   111100;
	[206..211]  :   111111;
	212  :   111000;
	[213..21A]  :   111100;
	[21B..21D]  :   110100;
	[21E..225]  :   111100;
	[226..227]  :   110100;
	228  :   111000;
	[229..22D]  :   111100;
	[22E..238]  :   111111;
	239  :   111000;
	23A  :   110100;
	[23B..241]  :   111100;
	[242..244]  :   110100;
	245  :   111000;
	[246..248]  :   111100;
	249  :   111000;
	[24A..24D]  :   111100;
	24E  :   110100;
	24F  :   111000;
	[250..255]  :   111100;
	[256..25F]  :   111111;
	260  :   111110;
	261  :   110100;
	262  :   111000;
	[263..268]  :   111100;
	269  :   111000;
	[26A..26B]  :   110100;
	26C  :   111000;
	[26D..270]  :   111100;
	271  :   110000;
	[272..274]  :   111100;
	275  :   110100;
	276  :   111000;
	[277..27C]  :   111100;
	27D  :   111000;
	[27E..286]  :   111111;
	287  :   111110;
	288  :   110100;
	289  :   111000;
	[28A..290]  :   111100;
	[291..292]  :   110100;
	293  :   111000;
	[294..296]  :   111100;
	297  :   111000;
	298  :   111100;
	299  :   110100;
	[29A..29C]  :   111100;
	29D  :   111000;
	[29E..2A4]  :   111100;
	2A5  :   110100;
	[2A6..2AD]  :   111111;
	2AE  :   111011;
	2AF  :   111000;
	2B0  :   110100;
	[2B1..2B8]  :   111100;
	2B9  :   110100;
	2BA  :   111000;
	[2BB..2BE]  :   111100;
	2BF  :   110000;
	[2C0..2CC]  :   111100;
	2CD  :   110100;
	[2CE..2D5]  :   111111;
	2D6  :   110000;
	2D7  :   110100;
	2D8  :   111000;
	[2D9..2DB]  :   111100;
	2DC  :   111000;
	[2DD..2DF]  :   111100;
	[2E0..2E1]  :   110100;
	[2E2..2E5]  :   111100;
	2E6  :   111000;
	2E7  :   110000;
	[2E8..2EF]  :   111100;
	2F0  :   110000;
	[2F1..2F3]  :   111100;
	2F4  :   111000;
	2F5  :   110100;
	[2F6..2FC]  :   111111;
	2FD  :   111010;
	2FE  :   110000;
	2FF  :   110100;
	[300..307]  :   111100;
	308  :   110100;
	309  :   111000;
	[30A..30C]  :   111100;
	30D  :   111000;
	[30E..30F]  :   110000;
	[310..316]  :   111100;
	[317..318]  :   110100;
	[319..31B]  :   111100;
	[31C..31D]  :   110100;
	[31E..323]  :   111111;
	324  :   111110;
	[325..326]  :   110000;
	327  :   111000;
	[328..32F]  :   111100;
	330  :   111000;
	[331..334]  :   111100;
	335  :   110100;
	[336..337]  :   110000;
	338  :   111000;
	[339..33E]  :   111100;
	33F  :   111000;
	[340..343]  :   111100;
	[344..345]  :   110100;
	[346..34B]  :   111111;
	[34C..34E]  :   110000;
	[34F..352]  :   111100;
	353  :   111000;
	[354..35B]  :   111100;
	35C  :   111000;
	35D  :   110100;
	[35E..35F]  :   110000;
	[360..366]  :   111100;
	367  :   110100;
	[368..36A]  :   111100;
	36B  :   111000;
	[36C..36D]  :   110100;
	[36E..372]  :   111111;
	373  :   111010;
	[374..375]  :   110000;
	376  :   110100;
	[377..379]  :   111100;
	37A  :   111000;
	[37B..382]  :   111100;
	383  :   111000;
	384  :   110100;
	385  :   111100;
	[386..387]  :   110100;
	[388..38D]  :   111100;
	38E  :   111000;
	[38F..392]  :   111100;
	[393..394]  :   110100;
	395  :   111001;
	[396..39A]  :   111111;
	[39B..39D]  :   110000;
	[39E..3A1]  :   111100;
	3A2  :   111000;
	[3A3..3A5]  :   111100;
	3A6  :   111000;
	[3A7..3AA]  :   111100;
	[3AB..3AC]  :   110100;
	[3AD..3AE]  :   111001;
	[3AF..3B4]  :   111100;
	3B5  :   110000;
	3B6  :   110100;
	[3B7..3B9]  :   111100;
	3BA  :   111000;
	3BB  :   110100;
	3BC  :   111001;
	[3BD..3C2]  :   111111;
	[3C3..3C4]  :   111100;
	3C5  :   110000;
	[3C6..3D1]  :   111100;
	[3D2..3D4]  :   110100;
	[3D5..3D6]  :   111000;
	[3D7..3DB]  :   111100;
	3DC  :   110100;
	3DD  :   110000;
	[3DE..3E1]  :   111100;
	[3E2..3E3]  :   110100;
	[3E4..3EA]  :   111111;
	[3EB..3EC]  :   111100;
	3ED  :   110100;
	[3EE..3F0]  :   111100;
	3F1  :   111000;
	[3F2..3F8]  :   111100;
	3F9  :   111000;
	[3FA..3FC]  :   110100;
	[3FD..403]  :   111100;
	404  :   110000;
	405  :   110100;
	[406..408]  :   111100;
	409  :   111000;
	40A  :   110100;
	40B  :   111001;
	[40C..412]  :   111111;
	413  :   111100;
	414  :   111000;
	[415..420]  :   111100;
	421  :   111000;
	[422..424]  :   110100;
	[425..42A]  :   111100;
	42B  :   111000;
	42C  :   110100;
	42D  :   111000;
	[42E..430]  :   111100;
	431  :   110100;
	432  :   111001;
	[433..43A]  :   111111;
	[43B..43C]  :   110000;
	[43D..448]  :   111100;
	449  :   111000;
	[44A..44C]  :   110100;
	[44D..452]  :   111100;
	[453..454]  :   110100;
	[455..458]  :   111100;
	459  :   110100;
	[45A..462]  :   111111;
	463  :   110000;
	464  :   110100;
	[465..467]  :   111100;
	468  :   111000;
	[469..472]  :   111100;
	[473..474]  :   110100;
	[475..479]  :   111100;
	47A  :   111000;
	[47B..47C]  :   110100;
	[47D..47F]  :   111100;
	[480..481]  :   110000;
	[482..48A]  :   111111;
	[48B..499]  :   111100;
	49A  :   111000;
	49B  :   110100;
	49C  :   111000;
	[49D..4A1]  :   111100;
	[4A2..4A4]  :   110000;
	[4A5..4A7]  :   111100;
	4A8  :   110000;
	4A9  :   110101;
	[4AA..4AF]  :   111111;
	4B0  :   111010;
	4B1  :   111111;
	4B2  :   111110;
	[4B3..4C1]  :   111100;
	[4C2..4C4]  :   110100;
	[4C5..4C9]  :   111100;
	[4CA..4CC]  :   110000;
	[4CD..4CF]  :   111100;
	4D0  :   110000;
	[4D1..4D7]  :   111111;
	[4D8..4D9]  :   110000;
	[4DA..4E9]  :   111100;
	[4EA..4EC]  :   110100;
	[4ED..4F1]  :   111100;
	4F2  :   110100;
	[4F3..4F4]  :   110000;
	[4F5..4F7]  :   111100;
	4F8  :   110101;
	[4F9..4FF]  :   111111;
	500  :   110000;
	501  :   110100;
	[502..511]  :   111100;
	[512..514]  :   110100;
	[515..51A]  :   111100;
	51B  :   110100;
	51C  :   110000;
	[51D..51F]  :   111100;
	[520..527]  :   111111;
	528  :   110000;
	[529..539]  :   111100;
	53A  :   111000;
	53B  :   110100;
	53C  :   111000;
	[53D..543]  :   111100;
	544  :   110100;
	[545..547]  :   111100;
	[548..54F]  :   111111;
	550  :   110000;
	[551..562]  :   111100;
	563  :   110100;
	[564..567]  :   111100;
	568  :   111000;
	[569..56F]  :   111100;
	[570..577]  :   111111;
	578  :   110000;
	[579..589]  :   111100;
	58A  :   111000;
	58B  :   110100;
	[58C..58F]  :   111100;
	590  :   110100;
	591  :   111000;
	[592..597]  :   111100;
	[598..59F]  :   111111;
	5A0  :   110000;
	[5A1..5A6]  :   111100;
	5A7  :   110100;
	[5A8..5AA]  :   111100;
	5AB  :   111000;
	[5AC..5B1]  :   111100;
	[5B2..5B3]  :   110100;
	5B4  :   111000;
	[5B5..5B6]  :   111100;
	[5B7..5B9]  :   110100;
	[5BA..5BF]  :   111100;
	[5C0..5C7]  :   111111;
	5C8  :   110101;
	5C9  :   111000;
	[5CA..5CE]  :   111100;
	5CF  :   110100;
	5D0  :   111000;
	[5D1..5D9]  :   111100;
	[5DA..5E1]  :   110100;
	5E2  :   111000;
	[5E3..5E7]  :   111100;
	[5E8..5EF]  :   111111;
	[5F0..5F1]  :   110000;
	[5F2..5F5]  :   111100;
	5F6  :   110100;
	5F7  :   111000;
	[5F8..601]  :   111100;
	602  :   110100;
	603  :   111000;
	[604..60A]  :   110100;
	60B  :   111000;
	[60C..60E]  :   111100;
	60F  :   111000;
	[610..617]  :   111111;
	618  :   110000;
	619  :   110100;
	[61A..61C]  :   111100;
	[61D..61E]  :   111000;
	[61F..629]  :   111100;
	62A  :   111000;
	62B  :   111100;
	62C  :   111000;
	[62D..633]  :   110100;
	634  :   111000;
	[635..637]  :   111100;
	[638..63F]  :   111111;
	640  :   110000;
	[641..643]  :   111100;
	644  :   111000;
	645  :   110100;
	[646..650]  :   111100;
	651  :   111000;
	[652..654]  :   111100;
	[655..65C]  :   110100;
	65D  :   111000;
	[65E..65F]  :   111100;
	[660..667]  :   111111;
	668  :   110100;
	[669..66B]  :   111100;
	66C  :   110000;
	[66D..670]  :   111100;
	671  :   111000;
	[672..674]  :   111100;
	675  :   111000;
	[676..678]  :   111100;
	679  :   111000;
	[67A..67C]  :   111100;
	67D  :   111000;
	[67E..685]  :   110100;
	686  :   111000;
	687  :   111100;
	[688..68F]  :   111111;
	[690..693]  :   111100;
	694  :   110000;
	[695..697]  :   111100;
	[698..699]  :   111000;
	[69A..69C]  :   111100;
	69D  :   111000;
	[69E..6A5]  :   111100;
	[6A6..6AE]  :   110100;
	6AF  :   111000;
	6B0  :   111010;
	[6B1..6B7]  :   111111;
	[6B8..6BA]  :   111100;
	6BB  :   111000;
	6BC  :   110100;
	[6BD..6BF]  :   111100;
	6C0  :   110100;
	[6C1..6C4]  :   111100;
	6C5  :   110100;
	6C6  :   111000;
	[6C7..6CE]  :   111100;
	6CF  :   111000;
	[6D0..6D6]  :   110100;
	6D7  :   111000;
	6D8  :   111100;
	[6D9..6DF]  :   111111;
	[6E0..6E2]  :   111100;
	6E3  :   110000;
	6E4  :   111000;
	[6E5..6E6]  :   111100;
	6E7  :   111000;
	6E8  :   110100;
	[6E9..6EB]  :   111100;
	6EC  :   111000;
	[6ED..6EE]  :   110100;
	6EF  :   111000;
	[6F0..6F7]  :   111100;
	6F8  :   111000;
	[6F9..6FC]  :   110100;
	6FD  :   111000;
	[6FE..6FF]  :   110100;
	700  :   111000;
	[701..707]  :   111111;
	[708..70A]  :   111100;
	70B  :   110000;
	[70C..70E]  :   111100;
	70F  :   111000;
	710  :   110100;
	[711..713]  :   111100;
	714  :   110100;
	715  :   111000;
	716  :   110000;
	717  :   110100;
	718  :   111000;
	[719..720]  :   111100;
	721  :   111000;
	[722..728]  :   110100;
	[729..72F]  :   111111;
	[730..732]  :   111100;
	733  :   110100;
	[734..736]  :   111100;
	737  :   110100;
	738  :   111000;
	[739..73B]  :   111100;
	73C  :   111000;
	73D  :   111100;
	[73E..741]  :   110100;
	742  :   111000;
	[743..749]  :   111100;
	74A  :   111000;
	[74B..74D]  :   110100;
	74E  :   111000;
	[74F..750]  :   110100;
	751  :   111010;
	[752..757]  :   111111;
	[758..75E]  :   111100;
	[75F..761]  :   111000;
	762  :   111100;
	763  :   111000;
	764  :   111100;
	[765..76A]  :   110100;
	76B  :   111000;
	[76C..772]  :   111100;
	[773..774]  :   110100;
	[775..776]  :   111000;
	[777..779]  :   110100;
	77A  :   111010;
	[77B..77F]  :   111111;
	[780..786]  :   111100;
	787  :   111000;
	[788..78A]  :   110100;
	78B  :   111000;
	[78C..78D]  :   110000;
	[78E..793]  :   110100;
	[794..79A]  :   111100;
	79B  :   111000;
	79C  :   110100;
	[79D..79E]  :   111100;
	79F  :   111000;
	[7A0..7A2]  :   110100;
	[7A3..7A7]  :   111111;
	[7A8..7AE]  :   111100;
	[7AF..7B1]  :   110100;
	7B2  :   111000;
	[7B3..7B7]  :   110000;
	[7B8..7BA]  :   110100;
	[7BB..7BC]  :   111000;
	[7BD..7C3]  :   111100;
	7C4  :   110100;
	[7C5..7C6]  :   111100;
	7C7  :   111000;
	[7C8..7CA]  :   110100;
	[7CB..7CF]  :   111111;
	[7D0..7D5]  :   111100;
	7D6  :   111000;
	[7D7..7D8]  :   110100;
	7D9  :   111000;
	[7DA..7DE]  :   110000;
	[7DF..7E2]  :   110100;
	[7E3..7E6]  :   111100;
	[7E7..7E8]  :   111000;
	[7E9..7EB]  :   111100;
	7EC  :   110100;
	7ED  :   111000;
	[7EE..7EF]  :   111100;
	[7F0..7F2]  :   110100;
	[7F3..7F7]  :   111111;
	[7F8..7FD]  :   111100;
	[7FE..800]  :   110100;
	[801..805]  :   110000;
	[806..80A]  :   110100;
	[80B..80F]  :   111100;
	810  :   111000;
	[811..813]  :   111100;
	814  :   111000;
	815  :   110000;
	[816..817]  :   111100;
	[818..81A]  :   110100;
	[81B..81F]  :   111111;
	[820..824]  :   111100;
	825  :   111000;
	[826..827]  :   110100;
	[828..82A]  :   110000;
	82B  :   110100;
	[82C..82D]  :   110000;
	[82E..832]  :   110100;
	[833..83B]  :   111100;
	83C  :   110100;
	83D  :   110000;
	[83E..83F]  :   111100;
	[840..841]  :   110100;
	842  :   111001;
	[843..847]  :   111111;
	[848..84C]  :   111100;
	84D  :   111000;
	[84E..84F]  :   110100;
	[850..852]  :   110000;
	853  :   111100;
	[854..855]  :   110000;
	[856..85A]  :   110100;
	85B  :   111000;
	[85C..863]  :   111100;
	[864..865]  :   110100;
	[866..867]  :   111100;
	[868..869]  :   110100;
	[86A..86F]  :   111111;
	[870..873]  :   111100;
	874  :   111000;
	[875..876]  :   110100;
	[877..87A]  :   110000;
	87B  :   111000;
	87C  :   110000;
	[87D..882]  :   110100;
	883  :   111000;
	[884..88B]  :   111100;
	[88C..88D]  :   110100;
	[88E..88F]  :   111100;
	[890..891]  :   110100;
	[892..897]  :   111111;
	[898..89B]  :   111100;
	89C  :   111000;
	89D  :   110100;
	[89E..8A4]  :   110000;
	[8A5..8AB]  :   110100;
	[8AC..8B3]  :   111100;
	[8B4..8B5]  :   110100;
	8B6  :   111100;
	8B7  :   111000;
	[8B8..8B9]  :   110100;
	[8BA..8BF]  :   111111;
	[8C0..8C3]  :   111100;
	8C4  :   110100;
	[8C5..8C6]  :   111000;
	[8C7..8CB]  :   110000;
	[8CC..8D3]  :   110100;
	[8D4..8DB]  :   111100;
	[8DC..8DD]  :   111000;
	8DE  :   111100;
	[8DF..8E0]  :   110100;
	8E1  :   111001;
	[8E2..8E7]  :   111111;
	[8E8..8EB]  :   111100;
	8EC  :   111000;
	[8ED..8EE]  :   111100;
	[8EF..8F2]  :   110000;
	[8F3..8F5]  :   110100;
	8F6  :   111000;
	[8F7..8F8]  :   111100;
	8F9  :   111000;
	[8FA..8FB]  :   110100;
	8FC  :   111000;
	[8FD..906]  :   111100;
	[907..908]  :   110100;
	[909..90F]  :   111111;
	[910..913]  :   111100;
	914  :   111000;
	[915..916]  :   111100;
	917  :   110100;
	[918..91A]  :   110000;
	[91B..91C]  :   110100;
	91D  :   111000;
	[91E..921]  :   111100;
	922  :   111000;
	923  :   110100;
	924  :   111000;
	[925..92E]  :   111100;
	[92F..930]  :   110100;
	[931..937]  :   111111;
	[938..93C]  :   111100;
	93D  :   111000;
	93E  :   111100;
	[93F..941]  :   110000;
	[942..944]  :   110100;
	[945..94B]  :   111100;
	94C  :   111000;
	[94D..94F]  :   111100;
	950  :   110100;
	[951..955]  :   111100;
	956  :   111000;
	[957..958]  :   110100;
	[959..95F]  :   111111;
	[960..964]  :   111100;
	965  :   111000;
	966  :   111100;
	[967..968]  :   110000;
	[969..96A]  :   110100;
	[96B..96C]  :   111000;
	[96D..977]  :   111100;
	[978..979]  :   110100;
	[97A..97D]  :   111100;
	[97E..980]  :   110100;
	[981..987]  :   111111;
	[988..98E]  :   111100;
	[98F..990]  :   110000;
	[991..992]  :   110100;
	[993..99F]  :   111100;
	[9A0..9A1]  :   110100;
	[9A2..9A4]  :   111100;
	9A5  :   111000;
	[9A6..9A7]  :   110100;
	9A8  :   111001;
	[9A9..9AF]  :   111111;
	[9B0..9B5]  :   111100;
	9B6  :   111000;
	[9B7..9B8]  :   110000;
	[9B9..9BA]  :   110100;
	[9BB..9C7]  :   111100;
	[9C8..9C9]  :   110100;
	[9CA..9CC]  :   111100;
	[9CD..9CF]  :   110100;
	[9D0..9D7]  :   111111;
	[9D8..9DD]  :   111100;
	9DE  :   110100;
	[9DF..9E0]  :   110000;
	[9E1..9E2]  :   110100;
	[9E3..9EF]  :   111100;
	9F0  :   111000;
	9F1  :   110100;
	[9F2..9F3]  :   111100;
	9F4  :   111000;
	[9F5..9F7]  :   110100;
	[9F8..9FF]  :   111111;
	[A00..A05]  :   111100;
	A06  :   110100;
	A07  :   110000;
	[A08..A0A]  :   110100;
	[A0B..A18]  :   111100;
	A19  :   111000;
	[A1A..A1B]  :   111100;
	[A1C..A1E]  :   110100;
	A1F  :   111000;
	[A20..A27]  :   111111;
	[A28..A2D]  :   111100;
	A2E  :   110100;
	A2F  :   110000;
	[A30..A32]  :   110100;
	[A33..A3C]  :   111100;
	A3D  :   111000;
	[A3E..A42]  :   111100;
	A43  :   111000;
	[A44..A45]  :   110100;
	A46  :   111000;
	A47  :   111100;
	A48  :   111101;
	[A49..A4F]  :   111111;
	[A50..A55]  :   111100;
	A56  :   111000;
	A57  :   110000;
	[A58..A5A]  :   110100;
	[A5B..A63]  :   111100;
	A64  :   111000;
	A65  :   110100;
	[A66..A69]  :   111100;
	A6A  :   111000;
	[A6B..A6D]  :   110100;
	[A6E..A70]  :   111100;
	[A71..A78]  :   111111;
	A79  :   111101;
	[A7A..A7E]  :   111100;
	[A7F..A82]  :   110100;
	A83  :   111000;
	[A84..A8A]  :   111100;
	A8B  :   111000;
	[A8C..A8D]  :   110100;
	[A8E..A91]  :   111100;
	[A92..A94]  :   110100;
	A95  :   111000;
	[A96..A97]  :   111100;
	A98  :   111101;
	[A99..AA1]  :   111111;
	[AA2..AA7]  :   111100;
	AA8  :   110000;
	AA9  :   111000;
	[AAA..AB5]  :   110100;
	[AB6..AB8]  :   111100;
	[AB9..ABC]  :   110100;
	[ABD..ABE]  :   111100;
	ABF  :   111101;
	[AC0..AC9]  :   111111;
	[ACA..ACF]  :   111100;
	AD0  :   110000;
	[AD1..ADD]  :   110100;
	[ADE..AE0]  :   111100;
	[AE1..AE3]  :   110100;
	AE4  :   111000;
	AE5  :   111100;
	AE6  :   111101;
	[AE7..AF1]  :   111111;
	[AF2..AF7]  :   111100;
	[AF8..AF9]  :   110000;
	[AFA..B03]  :   110100;
	B04  :   110000;
	B05  :   110100;
	B06  :   111000;
	B07  :   111100;
	B08  :   111000;
	B09  :   110100;
	B0A  :   111000;
	[B0B..B0D]  :   111100;
	[B0E..B19]  :   111111;
	[B1A..B1F]  :   111100;
	[B20..B22]  :   110000;
	[B23..B2A]  :   110100;
	B2B  :   110000;
	[B2C..B30]  :   110100;
	B31  :   111000;
	[B32..B34]  :   111100;
	B35  :   111101;
	[B36..B41]  :   111111;
	[B42..B48]  :   111100;
	[B49..B51]  :   110000;
	B52  :   110100;
	B53  :   111000;
	[B54..B57]  :   110100;
	B58  :   111000;
	[B59..B5A]  :   111100;
	B5B  :   111101;
	[B5C..B69]  :   111111;
	B6A  :   111101;
	[B6B..B71]  :   111100;
	B72  :   110100;
	[B73..B74]  :   110000;
	[B75..B77]  :   110100;
	[B78..B7A]  :   111000;
	[B7B..B7D]  :   110100;
	B7E  :   111000;
	[B7F..B80]  :   111100;
	B81  :   111101;
	[B82..B92]  :   111111;
	[B93..B94]  :   111100;
	B95  :   111000;
	[B96..B9B]  :   111100;
	B9C  :   111000;
	[B9D..B9E]  :   110100;
	[B9F..BA0]  :   111000;
	[BA1..BA4]  :   110100;
	BA5  :   111000;
	BA6  :   111100;
	BA7  :   111101;
	[BA8..BBA]  :   111111;
	[BBB..BC6]  :   111100;
	BC7  :   111000;
	[BC8..BCB]  :   110100;
	BCC  :   111000;
	BCD  :   111100;
	BCE  :   111101;
	[BCF..BE2]  :   111111;
	[BE3..BE8]  :   111100;
	BE9  :   111000;
	[BEA..BF1]  :   110100;
	BF2  :   111000;
	BF3  :   111100;
	BF4  :   111101;
	[BF5..C12]  :   111111;
	C13  :   111001;
	[C14..C18]  :   110100;
	C19  :   111000;
	C1A  :   111100;
	C1B  :   111101;
	[C1C..C7F]  :   111111;
END;
