-- Copyright (C) 2017  Intel Corporation. All rights reserved.
-- Your use of Intel Corporation's design tools, logic functions 
-- and other software and tools, and its AMPP partner logic 
-- functions, and any output files from any of the foregoing 
-- (including device programming or simulation files), and any 
-- associated documentation or information are expressly subject 
-- to the terms and conditions of the Intel Program License 
-- Subscription Agreement, the Intel Quartus Prime License Agreement,
-- the Intel MegaCore Function License Agreement, or other 
-- applicable license agreement, including, without limitation, 
-- that your use is for the sole purpose of programming logic 
-- devices manufactured by Intel and sold by Intel or its 
-- authorized distributors.  Please refer to the applicable 
-- agreement for further details.

-- Quartus Prime generated Memory Initialization File (.mif)

WIDTH=6;
DEPTH=3200;

ADDRESS_RADIX=HEX;
DATA_RADIX=BIN;

CONTENT BEGIN
	[000..010]  :   111111;
	011  :   111100;
	[012..013]  :   110000;
	014  :   111100;
	015  :   111111;
	016  :   111100;
	[017..036]  :   111111;
	[037..039]  :   111100;
	[03A..03C]  :   110000;
	[03D..03F]  :   111100;
	[040..05D]  :   111111;
	[05E..068]  :   111100;
	[069..06C]  :   111111;
	06D  :   111100;
	[06E..080]  :   111111;
	[081..082]  :   111100;
	[083..085]  :   111111;
	[086..090]  :   111100;
	[091..093]  :   111111;
	[094..096]  :   111100;
	[097..0A7]  :   111111;
	[0A8..0AB]  :   111100;
	0AC  :   111111;
	[0AD..0B9]  :   111100;
	0BA  :   111111;
	[0BB..0BE]  :   111100;
	[0BF..0CF]  :   111111;
	[0D0..0E6]  :   111100;
	[0E7..0F7]  :   111111;
	[0F8..105]  :   111100;
	106  :   110000;
	[107..10E]  :   111100;
	[10F..11F]  :   111111;
	[120..12D]  :   111100;
	12E  :   110000;
	[12F..136]  :   111100;
	[137..147]  :   111111;
	[148..155]  :   111100;
	156  :   110000;
	[157..15E]  :   111100;
	[15F..16F]  :   111111;
	[170..17D]  :   111100;
	[17E..17F]  :   110000;
	180  :   111111;
	[181..186]  :   111100;
	[187..197]  :   111111;
	[198..19D]  :   111100;
	19E  :   110000;
	[19F..1A5]  :   111100;
	[1A6..1A7]  :   110000;
	[1A8..1A9]  :   111111;
	[1AA..1AF]  :   111100;
	[1B0..1C0]  :   111111;
	[1C1..1C4]  :   111100;
	[1C5..1C6]  :   110000;
	[1C7..1CD]  :   111100;
	[1CE..1D0]  :   110000;
	[1D1..1D7]  :   111100;
	[1D8..1E8]  :   111111;
	[1E9..1EC]  :   111100;
	[1ED..1EF]  :   110000;
	[1F0..1F7]  :   111100;
	[1F8..1F9]  :   110000;
	1FA  :   111111;
	[1FB..1FF]  :   111100;
	[200..20F]  :   111111;
	[210..214]  :   111100;
	[215..217]  :   110000;
	[218..21F]  :   111100;
	[220..221]  :   110000;
	222  :   111111;
	[223..226]  :   111100;
	[227..236]  :   111111;
	[237..23C]  :   111100;
	[23D..23E]  :   110000;
	[23F..247]  :   111100;
	[248..24A]  :   110000;
	[24B..24D]  :   111100;
	[24E..25E]  :   111111;
	[25F..264]  :   111100;
	[265..266]  :   110000;
	[267..26F]  :   111100;
	[270..272]  :   110000;
	[273..275]  :   111100;
	[276..286]  :   111111;
	[287..28C]  :   111100;
	[28D..28E]  :   110000;
	28F  :   111100;
	[290..292]  :   110000;
	[293..297]  :   111100;
	[298..29A]  :   110000;
	[29B..29D]  :   111100;
	[29E..2AE]  :   111111;
	[2AF..2B4]  :   111100;
	[2B5..2B7]  :   110000;
	2B8  :   111100;
	[2B9..2BA]  :   110000;
	[2BB..2BF]  :   111100;
	[2C0..2C3]  :   110000;
	[2C4..2C5]  :   111100;
	[2C6..2D6]  :   111111;
	[2D7..2DC]  :   111100;
	[2DD..2DF]  :   110000;
	2E0  :   111100;
	[2E1..2E4]  :   110000;
	[2E5..2E7]  :   111100;
	[2E8..2EB]  :   110000;
	[2EC..2EE]  :   111100;
	[2EF..2FE]  :   111111;
	[2FF..304]  :   111100;
	[305..307]  :   110000;
	308  :   101000;
	[309..30D]  :   110000;
	[30E..30F]  :   111100;
	[310..313]  :   110000;
	[314..316]  :   111100;
	[317..326]  :   111111;
	[327..32C]  :   111100;
	[32D..336]  :   110000;
	337  :   111100;
	[338..33B]  :   110000;
	[33C..33E]  :   111100;
	[33F..34E]  :   111111;
	[34F..354]  :   111100;
	[355..35E]  :   110000;
	35F  :   111100;
	[360..364]  :   110000;
	[365..366]  :   111100;
	[367..376]  :   111111;
	[377..37C]  :   111100;
	[37D..386]  :   110000;
	387  :   111100;
	[388..38C]  :   110000;
	[38D..38F]  :   111100;
	[390..39E]  :   111111;
	[39F..3A5]  :   111100;
	[3A6..3AD]  :   110000;
	[3AE..3AF]  :   111100;
	3B0  :   101000;
	[3B1..3B4]  :   110000;
	[3B5..3B7]  :   111100;
	[3B8..3C6]  :   111111;
	[3C7..3CD]  :   111100;
	[3CE..3D3]  :   110000;
	[3D4..3D8]  :   111100;
	[3D9..3DC]  :   110000;
	[3DD..3DF]  :   111100;
	[3E0..3EE]  :   111111;
	[3EF..3F6]  :   111100;
	[3F7..3FB]  :   110000;
	[3FC..400]  :   111100;
	[401..405]  :   110000;
	[406..407]  :   111100;
	[408..417]  :   111111;
	[418..41F]  :   111100;
	[420..423]  :   110000;
	[424..428]  :   111100;
	429  :   110000;
	[42A..42B]  :   111100;
	[42C..42D]  :   110000;
	[42E..42F]  :   111100;
	[430..43F]  :   111111;
	[440..447]  :   111100;
	[448..44B]  :   110000;
	[44C..453]  :   111100;
	[454..455]  :   110000;
	[456..457]  :   111100;
	[458..467]  :   111111;
	[468..471]  :   111100;
	472  :   110000;
	[473..47B]  :   111100;
	[47C..47E]  :   110000;
	47F  :   111100;
	[480..490]  :   111111;
	[491..4A3]  :   111100;
	[4A4..4A6]  :   110000;
	4A7  :   111100;
	[4A8..4B8]  :   111111;
	[4B9..4C2]  :   111100;
	4C3  :   110000;
	[4C4..4CB]  :   111100;
	[4CC..4CE]  :   110000;
	4CF  :   111100;
	[4D0..4E0]  :   111111;
	[4E1..4F3]  :   111100;
	[4F4..4F6]  :   110000;
	4F7  :   111100;
	[4F8..509]  :   111111;
	[50A..51B]  :   111100;
	[51C..51D]  :   110000;
	[51E..51F]  :   111100;
	[520..531]  :   111111;
	[532..543]  :   111100;
	544  :   110000;
	[545..547]  :   111100;
	[548..55A]  :   111111;
	[55B..564]  :   111100;
	565  :   101000;
	[566..56A]  :   110000;
	[56B..56E]  :   111100;
	[56F..583]  :   111111;
	[584..58D]  :   111100;
	[58E..58F]  :   110000;
	[590..595]  :   111100;
	[596..5AB]  :   111111;
	5AC  :   111100;
	[5AD..5AF]  :   110000;
	[5B0..5B4]  :   111100;
	[5B5..5B7]  :   110000;
	[5B8..5BC]  :   111100;
	[5BD..5D4]  :   111111;
	5D5  :   111100;
	[5D6..5DF]  :   110000;
	[5E0..5E2]  :   111100;
	[5E3..5FE]  :   111111;
	[5FF..606]  :   110000;
	[607..609]  :   111100;
	[60A..628]  :   111111;
	[629..62D]  :   110000;
	[62E..62F]  :   111100;
	[630..C7F]  :   111111;
END;
